…
The article data needs to be loaded from {epireview} using
[`epireview::load_epidata_raw()`](https://mrc-ide.github.io/epireview/reference/load_epidata_raw.html)
rather than `epireview::load_data()` because `load_data()` subsets the
bibliographic information to only provide: `"id"`,
`"first_author_surname"`, `"year_publication"`, and `"article_label"`
columns.

``` r
marburg_articles <- load_epidata_raw(
  pathogen = "marburg",
  table = "article"
)
marburg_articles
#> # A tibble: 58 × 25
#>    article_id pathogen   covidence_id first_author_first_n…¹ article_title doi  
#>         <dbl> <chr>             <int> <chr>                  <chr>         <chr>
#>  1          1 Marburg v…         2059 G A                    Haemorrhagic… NA   
#>  2          2 Marburg v…         2042 Christian              Antibodies t… NA   
#>  3          3 Marburg v…         1649 Y                      The origin a… 10.1…
#>  4          4 Marburg v…         1692 D.H.                   Marburg-Viru… NA   
#>  5          5 Marburg v…         2597 E. D.                  Filovirus ac… NA   
#>  6          6 Marburg v…         3795 JS                     Outbreak of … 10.1…
#>  7          7 Marburg v…         2596 E.D.                   Haemorrhagic… NA   
#>  8          8 Marburg v…         1615 O                      Viral hemorr… 10.4…
#>  9          9 Marburg v…         1693 Smiley                 Suspected Ex… 10.1…
#> 10         10 Marburg v…         1692 D                      Marburg-viru… NA   
#> # ℹ 48 more rows
#> # ℹ abbreviated name: ¹​first_author_first_name
#> # ℹ 19 more variables: journal <chr>, year_publication <int>, volume <int>,
#> #   issue <int>, page_first <int>, page_last <int>, paper_copy_only <lgl>,
#> #   notes <chr>, first_author_surname <chr>, double_extracted <dbl>,
#> #   qa_m1 <chr>, qa_m2 <chr>, qa_a3 <chr>, qa_a4 <chr>, qa_d5 <chr>,
#> #   qa_d6 <chr>, qa_d7 <chr>, score <dbl>, id <chr>
```
…
``` r
multi_row_entries <- duplicated(marburg_params$parameter_type) &
  duplicated(marburg_params$id)
multi_row_ids <- marburg_params$id[multi_row_entries]
```

``` r
multi_row_marburg_params <-
  marburg_params[marburg_params$id %in% multi_row_ids, ]
multi_row_marburg_params
#> # A tibble: 42 × 61
#>    parameter_data_id    article_id parameter_type parameter_value parameter_unit
#>    <chr>                     <int> <chr>                    <dbl> <chr>         
#>  1 0106582cf5ed3c52d5e…         20 Human delay -…            NA   Days          
#>  2 ce78f707a585d8bb23a…         22 Seroprevalenc…             0   Percentage (%)
#>  3 ca720828fd6ccb18844…         22 Seroprevalenc…             0   NA            
#>  4 61fbb9dfc021abf5bd1…         22 Seroprevalenc…             0   Percentage (%)
#>  5 29c8ca74306713a990c…         20 Severity - ca…            NA   NA            
#>  6 056a8d6b5f9aee3622d…         27 Human delay -…             9   Days          
#>  7 ce3976e2e15df3f6fb9…         27 Human delay -…             5.4 Days          
#>  8 3bf73665fa67a6ba7f7…         27 Human delay -…             7   Days          
#>  9 ba019f18acac9c5b0b7…         27 Human delay -…             9.3 Days          
#> 10 71798b4154011dcd008…         27 Human delay -…             9   Days          
#> # ℹ 32 more rows
#> # ℹ 56 more variables: parameter_lower_bound <dbl>,
#> #   parameter_upper_bound <dbl>, parameter_value_type <chr>,
#> #   parameter_uncertainty_single_value <dbl>,
#> #   parameter_uncertainty_singe_type <chr>,
#> #   parameter_uncertainty_lower_value <dbl>,
#> #   parameter_uncertainty_upper_value <dbl>, …
```
…
