Using {epireview} with {epiparameter} • epiparameter
…
The article data needs to be loaded from {epireview} using
epireview::load_epidata_raw() rather than
epireview::load_data() because load_data()
subsets the bibliographic information to only provide:
"id", "first_author_surname",
"year_publication", and "article_label"
columns.

marburg_articles <- load_epidata_raw(
  pathogen = "marburg",
  table = "article"
)
marburg_articles
#> # A tibble: 58 × 25
#>    article_id pathogen   covidence_id first_author_first_n…¹ article_title doi  
#>         <dbl> <chr>             <int> <chr>                  <chr>         <chr>
#>  1          1 Marburg v…         2059 G A                    Haemorrhagic… NA   
#>  2          2 Marburg v…         2042 Christian              Antibodies t… NA   
#>  3          3 Marburg v…         1649 Y                      The origin a… 10.1…
#>  4          4 Marburg v…         1692 D.H.                   Marburg-Viru… NA   
#>  5          5 Marburg v…         2597 E. D.                  Filovirus ac… NA   
#>  6          6 Marburg v…         3795 JS                     Outbreak of … 10.1…
#>  7          7 Marburg v…         2596 E.D.                   Haemorrhagic… NA   
#>  8          8 Marburg v…         1615 O                      Viral hemorr… 10.4…
#>  9          9 Marburg v…         1693 Smiley                 Suspected Ex… 10.1…
#> 10         10 Marburg v…         1692 D                      Marburg-viru… NA   
#> # ℹ 48 more rows
#> # ℹ abbreviated name: ¹​first_author_first_name
#> # ℹ 19 more variables: journal <chr>, year_publication <int>, volume <int>,
#> #   issue <int>, page_first <int>, page_last <int>, paper_copy_only <lgl>,
#> #   notes <chr>, first_author_surname <chr>, double_extracted <dbl>,
#> #   qa_m1 <int>, qa_m2 <int>, qa_a3 <int>, qa_a4 <int>, qa_d5 <int>,
#> #   qa_d6 <int>, qa_d7 <int>, score <dbl>, id <chr>
…
We will again subset the data to just use the epidemiological
parameter table, and subset that table to just the delay
distributions.

ebola_params <- ebola_data$params

delay_dist_rows <- grepl(
  pattern = "Human delay",
  x = ebola_params$parameter_type,
  fixed = TRUE
)
ebola_params <- ebola_params[delay_dist_rows, ]
ebola_params
#> # A tibble: 395 × 77
#>    id     parameter_data_id covidence_id pathogen parameter_type parameter_value
#>    <chr>  <chr>                    <int> <chr>    <chr>                    <dbl>
#>  1 b6168… 6f5cb18602d0dfec…           30 Ebola v… Human delay -…            NA  
#>  2 b6168… 55766cedfbf75a9c…           30 Ebola v… Human delay -…            NA  
#>  3 0a142… 3ae1f6b55d0f1cc5…           41 Ebola v… Human delay -…             9.2
#>  4 0a142… f0a0191af0663265…           41 Ebola v… Human delay -…             5.8
#>  5 0a142… a83683d0b55750df…           41 Ebola v… Human delay -…            10.6
#>  6 99d84… f4aaae2be84dee6c…           57 Ebola v… Human delay -…             8.6
#>  7 99d84… 1ea610e2489a3257…           57 Ebola v… Human delay -…             4.4
#>  8 99d84… 4316d44cbd32d365…           57 Ebola v… Human delay -…            14.4
#>  9 99d84… 7dfc17eab39f9aa0…           57 Ebola v… Human delay -…             8.6
#> 10 99d84… c9c3fc483d332934…           57 Ebola v… Human delay -…            10.6
#> # ℹ 385 more rows
#> # ℹ 71 more variables: exponent <dbl>, parameter_unit <chr>,
#> #   parameter_lower_bound <dbl>, parameter_upper_bound <dbl>,
#> #   parameter_value_type <chr>, parameter_uncertainty_single_value <dbl>,
#> #   parameter_uncertainty_singe_type <chr>,
#> #   parameter_uncertainty_lower_value <dbl>,
#> #   parameter_uncertainty_upper_value <dbl>, …
…
